Visualizing uncertainty and creating pretty tables
…
Limit your data to the following. Note that only rows corresponding to a crime have been retained, and I have counted the number of rows (crimes) for each district in each year. I have stored this data frame in an object called counts

## # A tibble: 42 x 3
##     year district_id     n
##    <dbl>       <dbl> <int>
##  1  2014           1 10519
##  2  2014           2  9287
##  3  2014           3 12041
##  4  2014           4 10039
##  5  2014           5  5801
##  6  2014           6 13118
##  7  2014           7   463
##  8  2015           1 11364
##  9  2015           2 10030
## 10  2015           3 13026
## # … with 32 more rows
…
