Introduction to Visualization
…
---
# Rearrange

```r
tuition %>%
  gather(year, avg_tuition, `2004-05`:`2015-16`) 
```

```
## # A tibble: 600 x 3
##    State       year    avg_tuition
##    <chr>       <chr>         <dbl>
##  1 Alabama     2004-05    5682.838
##  2 Alaska      2004-05    4328.281
##  3 Arizona     2004-05    5138.495
##  4 Arkansas    2004-05    5772.302
##  5 California  2004-05    5285.921
##  6 Colorado    2004-05    4703.777
##  7 Connecticut 2004-05    7983.695
##  8 Delaware    2004-05    8352.89 
##  9 Florida     2004-05    3848.201
## 10 Georgia     2004-05    4298.040
## # … with 590 more rows
```
…
---
# Let's back up a bit
* Lets go back to our full data, but in a format that we can have a `year`
variable.

```r
tuition_l <- tuition %>%
  gather(year, avg_tuition, -State)

tuition_l
```

```
## # A tibble: 600 x 3
##    State       year    avg_tuition
##    <chr>       <chr>         <dbl>
##  1 Alabama     2004-05    5682.838
##  2 Alaska      2004-05    4328.281
##  3 Arizona     2004-05    5138.495
##  4 Arkansas    2004-05    5772.302
##  5 California  2004-05    5285.921
##  6 Colorado    2004-05    4703.777
##  7 Connecticut 2004-05    7983.695
##  8 Delaware    2004-05    8352.89 
##  9 Florida     2004-05    3848.201
## 10 Georgia     2004-05    4298.040
## # … with 590 more rows
```
…
