Joins
…
---
# What's the primary key here? 

```r
library(rio)
library(here)
ecls <- import(here("data", "ecls-k_samp.sav"), setclass = "tbl_df") %>% 
    characterize()
ecls
```

```
## # A tibble: 984 x 33
##    child_id teacher_id school_id k_type school_type sex   ethnic famtype
##    <chr>    <chr>      <chr>     <chr>  <chr>       <chr> <chr>  <chr>  
##  1 0842021C 0842T02    0842      full-… public      male  BLACK… BIOLOG…
##  2 0905002C 0905T01    0905      full-… private     male  ASIAN  BIOLOG…
##  3 0150012C 0150T01    0150      full-… private     fema… BLACK… BIOLOG…
##  4 0556009C 0556T01    0556      full-… private     fema… HISPA… BIOLOG…
##  5 0089013C 0089T04    0089      full-… public      male  WHITE… BIOLOG…
##  6 1217001C 1217T13    1217      half-… public      fema… NATIV… BIOLOG…
##  7 1092008C 1092T01    1092      half-… public      fema… HISPA… BIOLOG…
##  8 0083007C 0083T16    0083      full-… public      male  WHITE… BIOLOG…
##  9 1091005C 1091T02    1091      half-… private     male  WHITE… BIOLOG…
## 10 2006006C 2006T01    2006      full-… private     male  WHITE… BIOLOG…
## # … with 974 more rows, and 25 more variables: numsibs <dbl>,
## #   SES_cont <dbl>, SES_cat <chr>, age <dbl>, T1RSCALE <dbl>,
## #   T1MSCALE <dbl>, T1GSCALE <dbl>, T2RSCALE <dbl>, T2MSCALE <dbl>,
## #   T2GSCALE <dbl>, IRTreadgain <dbl>, IRTmathgain <dbl>, IRTgkgain <dbl>,
## #   T1ARSLIT <dbl>, T1ARSMAT <dbl>, T1ARSGEN <dbl>, T2ARSLIT <dbl>,
## #   T2ARSMAT <dbl>, T2ARSGEN <dbl>, ARSlitgain <dbl>, ARSmathgain <dbl>,
## #   ARSgkgain <dbl>, testdate1 <date>, testdate2 <date>, elapse <dbl>
```

---
# Double-checking

```r
ecls %>% 
    count(child_id) 
```

```
## # A tibble: 984 x 2
##    child_id     n
##    <chr>    <int>
##  1 0001010C     1
##  2 0002010C     1
##  3 0009005C     1
##  4 0009014C     1
##  5 0009026C     1
##  6 0013003C     1
##  7 0016004C     1
##  8 0016009C     1
##  9 0022005C     1
## 10 0022014C     1
## # … with 974 more rows
```
…
---
# What about here?

```r
income_ineq <- import(here("data", "incomeInequality_tidy.csv"), 
                      setclass = "tbl_df")
income_ineq 
```

```
## # A tibble: 726 x 6
##     Year Number.thousands realGDPperCap PopulationK percentile    income
##    <int>            <int>         <dbl>       <int>      <dbl>     <dbl>
##  1  1947            37237      14117.32      144126       20    14243   
##  2  1947            37237      14117.32      144126       40    22984   
##  3  1947            37237      14117.32      144126       60    31166   
##  4  1947            37237      14117.32      144126       80    44223   
##  5  1947            37237      14117.32      144126       50    26764.14
##  6  1947            37237      14117.32      144126       90    41477   
##  7  1947            37237      14117.32      144126       95    54172   
##  8  1947            37237      14117.32      144126       99   134415   
##  9  1947            37237      14117.32      144126       99.5 203001   
## 10  1947            37237      14117.32      144126       99.9 479022   
## # … with 716 more rows
```
…
---
# Sometimes there is no key
* These tables have an *implicit* id - the row numbers. For example:

```r
install.packages("nycflights13")
library(nycflights13)
```

```r
flights
```

```
## # A tibble: 336,776 x 19
##     year month   day dep_time sched_dep_time dep_delay arr_time
##    <int> <int> <int>    <int>          <int>     <dbl>    <int>
##  1  2013     1     1      517            515         2      830
##  2  2013     1     1      533            529         4      850
##  3  2013     1     1      542            540         2      923
##  4  2013     1     1      544            545        -1     1004
##  5  2013     1     1      554            600        -6      812
##  6  2013     1     1      554            558        -4      740
##  7  2013     1     1      555            600        -5      913
##  8  2013     1     1      557            600        -3      709
##  9  2013     1     1      557            600        -3      838
## 10  2013     1     1      558            600        -2      753
## # … with 336,766 more rows, and 12 more variables: sched_arr_time <int>,
## #   arr_delay <dbl>, carrier <chr>, flight <int>, tailnum <chr>,
## #   origin <chr>, dest <chr>, air_time <dbl>, distance <dbl>, hour <dbl>,
## #   minute <dbl>, time_hour <dttm>
```
…
---
# Create a key
* If there is no key, it's often helpful to add one. These are called *surrogate* keys.

```r
flights <- flights %>% 
  rowid_to_column()

flights %>% 
  select(1:3, ncol(flights))
```

```
## # A tibble: 336,776 x 4
##    rowid  year month time_hour          
##    <int> <int> <int> <dttm>             
##  1     1  2013     1 2013-01-01 05:00:00
##  2     2  2013     1 2013-01-01 05:00:00
##  3     3  2013     1 2013-01-01 05:00:00
##  4     4  2013     1 2013-01-01 05:00:00
##  5     5  2013     1 2013-01-01 06:00:00
##  6     6  2013     1 2013-01-01 05:00:00
##  7     7  2013     1 2013-01-01 06:00:00
##  8     8  2013     1 2013-01-01 06:00:00
##  9     9  2013     1 2013-01-01 06:00:00
## 10    10  2013     1 2013-01-01 06:00:00
## # … with 336,766 more rows
```
…
---
# Join the tables

```r
left_join(dis_tbl, dis_code_tbl)
```

```
## Joining, by = "dis_code"
```

```
## # A tibble: 200 x 4
##      sid dis_code score disability               
##    <int> <chr>    <int> <chr>                    
##  1     1 40         193 Visual Impairment        
##  2     2 50         200 Communication Disorder   
##  3     3 74         190 Traumatic Brain Injury   
##  4     4 96         201 Developmental Delay 0-2yr
##  5     5 20         193 Hearing Impairment       
##  6     6 96         217 Developmental Delay 0-2yr
##  7     7 98         207 Developmental Delay 3-4yr
##  8     8 80         209 Other Health Impairments 
##  9     9 74         203 Traumatic Brain Injury   
## 10    10 00         216 Not Applicable           
## # … with 190 more rows
```
…
---

```r
left_join(stu, dems)
```

```
## # A tibble: 27 x 4
##      sid season score sped 
##    <int> <chr>  <dbl> <chr>
##  1     1 f         10 no   
##  2     1 f         10 no   
##  3     1 f         10 no   
##  4     1 w         12 no   
##  5     1 w         12 no   
##  6     1 w         12 no   
##  7     1 s         15 no   
##  8     1 s         15 no   
##  9     1 s         15 no   
## 10     2 f          8 no   
## # … with 17 more rows
```
…
```r
ecls <- ecls %>% 
    group_by(school_id) %>% 
    summarize(sch_pre_math = mean(T1MSCALE)) %>% 
    left_join(ecls)
```

---

```r
ecls
```

```
## # A tibble: 984 x 34
##    school_id sch_pre_math child_id teacher_id k_type school_type sex  
##    <chr>            <dbl> <chr>    <chr>      <chr>  <chr>       <chr>
##  1 0001          20.45800 0001010C 0001T01    full-… public      male 
##  2 0002          14.977   0002010C 0002T01    half-… public      fema…
##  3 0009          18.82    0009026C 0009T01    half-… public      male 
##  4 0009          18.82    0009014C 0009T02    half-… public      male 
##  5 0009          18.82    0009005C 0009T01    half-… public      male 
##  6 0013          42.321   0013003C 0013T01    full-… private     fema…
##  7 0016          17.55100 0016004C 0016T01    half-… public      male 
##  8 0016          17.55100 0016009C 0016T01    half-… public      fema…
##  9 0022          17.8465  0022005C 0022T01    half-… public      male 
## 10 0022          17.8465  0022014C 0022T03    half-… public      fema…
## # … with 974 more rows, and 27 more variables: ethnic <chr>,
## #   famtype <chr>, numsibs <dbl>, SES_cont <dbl>, SES_cat <chr>,
## #   age <dbl>, T1RSCALE <dbl>, T1MSCALE <dbl>, T1GSCALE <dbl>,
## #   T2RSCALE <dbl>, T2MSCALE <dbl>, T2GSCALE <dbl>, IRTreadgain <dbl>,
## #   IRTmathgain <dbl>, IRTgkgain <dbl>, T1ARSLIT <dbl>, T1ARSMAT <dbl>,
## #   T1ARSGEN <dbl>, T2ARSLIT <dbl>, T2ARSMAT <dbl>, T2ARSGEN <dbl>,
## #   ARSlitgain <dbl>, ARSmathgain <dbl>, ARSgkgain <dbl>,
## #   testdate1 <date>, testdate2 <date>, elapse <dbl>
```
…
---

```r
left_join(flights2, weather)
```

```
## # A tibble: 336,776 x 18
##     year month   day  hour origin dest  tailnum carrier  temp  dewp
##    <dbl> <dbl> <int> <dbl> <chr>  <chr> <chr>   <chr>   <dbl> <dbl>
##  1  2013     1     1     5 EWR    IAH   N14228  UA      39.02 28.04
##  2  2013     1     1     5 LGA    IAH   N24211  UA      39.92 24.98
##  3  2013     1     1     5 JFK    MIA   N619AA  AA      39.02 26.96
##  4  2013     1     1     5 JFK    BQN   N804JB  B6      39.02 26.96
##  5  2013     1     1     6 LGA    ATL   N668DN  DL      39.92 24.98
##  6  2013     1     1     5 EWR    ORD   N39463  UA      39.02 28.04
##  7  2013     1     1     6 EWR    FLL   N516JB  B6      37.94 28.04
##  8  2013     1     1     6 LGA    IAD   N829AS  EV      39.92 24.98
##  9  2013     1     1     6 JFK    MCO   N593JB  B6      37.94 26.96
## 10  2013     1     1     6 LGA    ORD   N3ALAA  AA      39.92 24.98
## # … with 336,766 more rows, and 8 more variables: humid <dbl>,
## #   wind_dir <dbl>, wind_speed <dbl>, wind_gust <dbl>, precip <dbl>,
## #   pressure <dbl>, visib <dbl>, time_hour <dttm>
```
…
---
# How? 
Specify the variables with `by`

```r
left_join(flights2, planes, by = "tailnum")
```

```
## # A tibble: 336,776 x 16
##    year.x month   day  hour origin dest  tailnum carrier year.y type 
##     <int> <int> <int> <dbl> <chr>  <chr> <chr>   <chr>    <int> <chr>
##  1   2013     1     1     5 EWR    IAH   N14228  UA        1999 Fixe…
##  2   2013     1     1     5 LGA    IAH   N24211  UA        1998 Fixe…
##  3   2013     1     1     5 JFK    MIA   N619AA  AA        1990 Fixe…
##  4   2013     1     1     5 JFK    BQN   N804JB  B6        2012 Fixe…
##  5   2013     1     1     6 LGA    ATL   N668DN  DL        1991 Fixe…
##  6   2013     1     1     5 EWR    ORD   N39463  UA        2012 Fixe…
##  7   2013     1     1     6 EWR    FLL   N516JB  B6        2000 Fixe…
##  8   2013     1     1     6 LGA    IAD   N829AS  EV        1998 Fixe…
##  9   2013     1     1     6 JFK    MCO   N593JB  B6        2004 Fixe…
## 10   2013     1     1     6 LGA    ORD   N3ALAA  AA          NA <NA> 
## # … with 336,766 more rows, and 6 more variables: manufacturer <chr>,
## #   model <chr>, engines <int>, seats <int>, speed <int>, engine <chr>
```
…
* Let's filter classrooms with extremely high math pretest average scores.

---
# First, calculate averages

```r
av_pre_mth <- ecls %>% 
    group_by(teacher_id, k_type) %>% 
    summarize(av_pre_mth = mean(T1MSCALE)) 
av_pre_mth
```

```
## # A tibble: 707 x 3
## # Groups:   teacher_id [?]
##    teacher_id k_type   av_pre_mth
##    <chr>      <chr>         <dbl>
##  1 0001T01    full-day   20.45800
##  2 0002T01    half-day   14.977  
##  3 0009T01    half-day   17.6475 
##  4 0009T02    half-day   21.165  
##  5 0013T01    full-day   42.321  
##  6 0016T01    half-day   17.55100
##  7 0022T01    half-day   20.368  
##  8 0022T03    half-day   15.325  
##  9 0023T01    half-day   10.988  
## 10 0023T04    half-day   20.02200
## # … with 697 more rows
```
…
---
# Filtering joins
`anti_join()` does the opposite of `semi_join`, keeping any rows that do 
**not** match.

```r
extr_low_ecls <- anti_join(ecls, extr_high)
extr_low_ecls
```

```
## # A tibble: 974 x 34
##    school_id sch_pre_math child_id teacher_id k_type school_type sex  
##    <chr>            <dbl> <chr>    <chr>      <chr>  <chr>       <chr>
##  1 0001          20.45800 0001010C 0001T01    full-… public      male 
##  2 0002          14.977   0002010C 0002T01    half-… public      fema…
##  3 0009          18.82    0009026C 0009T01    half-… public      male 
##  4 0009          18.82    0009014C 0009T02    half-… public      male 
##  5 0009          18.82    0009005C 0009T01    half-… public      male 
##  6 0016          17.55100 0016004C 0016T01    half-… public      male 
##  7 0016          17.55100 0016009C 0016T01    half-… public      fema…
##  8 0022          17.8465  0022005C 0022T01    half-… public      male 
##  9 0022          17.8465  0022014C 0022T03    half-… public      fema…
## 10 0023          15.5050  0023017C 0023T04    half-… public      male 
## # … with 964 more rows, and 27 more variables: ethnic <chr>,
## #   famtype <chr>, numsibs <dbl>, SES_cont <dbl>, SES_cat <chr>,
## #   age <dbl>, T1RSCALE <dbl>, T1MSCALE <dbl>, T1GSCALE <dbl>,
## #   T2RSCALE <dbl>, T2MSCALE <dbl>, T2GSCALE <dbl>, IRTreadgain <dbl>,
## #   IRTmathgain <dbl>, IRTgkgain <dbl>, T1ARSLIT <dbl>, T1ARSMAT <dbl>,
## #   T1ARSGEN <dbl>, T2ARSLIT <dbl>, T2ARSMAT <dbl>, T2ARSGEN <dbl>,
## #   ARSlitgain <dbl>, ARSmathgain <dbl>, ARSgkgain <dbl>,
## #   testdate1 <date>, testdate2 <date>, elapse <dbl>
```
…
---
# One more quick example
### Stop words

```r
# install.packages(c("tidytext", "janeaustenr"))
library(tidytext)
library(janeaustenr)

austen_books()
```

```
## # A tibble: 73,422 x 2
##    text                  book               
##  * <chr>                 <fct>              
##  1 SENSE AND SENSIBILITY Sense & Sensibility
##  2 ""                    Sense & Sensibility
##  3 by Jane Austen        Sense & Sensibility
##  4 ""                    Sense & Sensibility
##  5 (1811)                Sense & Sensibility
##  6 ""                    Sense & Sensibility
##  7 ""                    Sense & Sensibility
##  8 ""                    Sense & Sensibility
##  9 ""                    Sense & Sensibility
## 10 CHAPTER 1             Sense & Sensibility
## # … with 73,412 more rows
```

---
# Get words

```r
austen_books() %>%
  unnest_tokens(word, text)
```

```
## # A tibble: 725,055 x 2
##    book                word       
##    <fct>               <chr>      
##  1 Sense & Sensibility sense      
##  2 Sense & Sensibility and        
##  3 Sense & Sensibility sensibility
##  4 Sense & Sensibility by         
##  5 Sense & Sensibility jane       
##  6 Sense & Sensibility austen     
##  7 Sense & Sensibility 1811       
##  8 Sense & Sensibility chapter    
##  9 Sense & Sensibility 1          
## 10 Sense & Sensibility the        
## # … with 725,045 more rows
```

---
# Count words

```r
austen_books() %>%
  unnest_tokens(word, text) %>% 
  count(word, sort = TRUE)
```

```
## # A tibble: 14,520 x 2
##    word      n
##    <chr> <int>
##  1 the   26351
##  2 to    24044
##  3 and   22515
##  4 of    21178
##  5 a     13408
##  6 her   13055
##  7 i     12006
##  8 in    11217
##  9 was   11204
## 10 it    10234
## # … with 14,510 more rows
```

---
# Stop words

```r
stop_words
```

```
## # A tibble: 1,149 x 2
##    word        lexicon
##    <chr>       <chr>  
##  1 a           SMART  
##  2 a's         SMART  
##  3 able        SMART  
##  4 about       SMART  
##  5 above       SMART  
##  6 according   SMART  
##  7 accordingly SMART  
##  8 across      SMART  
##  9 actually    SMART  
## 10 after       SMART  
## # … with 1,139 more rows
```

---
# Remove stop words

```r
austen_books() %>%
  unnest_tokens(word, text) %>% 
  anti_join(stop_words) %>% 
  count(word, sort = TRUE)
```

```
## # A tibble: 13,914 x 2
##    word       n
##    <chr>  <int>
##  1 miss    1855
##  2 time    1337
##  3 fanny    862
##  4 dear     822
##  5 lady     817
##  6 sir      806
##  7 day      797
##  8 emma     787
##  9 sister   727
## 10 house    699
## # … with 13,904 more rows
```
